multiplex/multiplex/simulation/qsim/multiplex.msim.vcd
$comment
	File created using the following command:
		vcd file multiplex.msim.vcd -direction
$end
$date
	Fri Sep 14 12:51:06 2018
$end
$version
	ModelSim Version 10.1d
$end
$timescale
	1ps
$end
$scope module multiplex_vlg_vec_tst $end
$var reg 1 ! F0 $end
$var reg 1 " F1 $end
$var reg 1 # S $end
$var wire 1 $ O $end
$var wire 1 % sampler $end
$scope module i1 $end
$var wire 1 & gnd $end
$var wire 1 ' vcc $end
$var wire 1 ( unknown $end
$var tri1 1 ) devclrn $end
$var tri1 1 * devpor $end
$var tri1 1 + devoe $end
$var wire 1 , S~combout $end
$var wire 1 - F1~combout $end
$var wire 1 . F0~combout $end
$var wire 1 / O~0_combout $end
$upscope $end
$upscope $end
$enddefinitions $end
#0
$dumpvars
0!
0"
0#
0$
x%
0&
1'
x(
1)
1*
1+
0,
0-
0.
0/
$end
#10000
1!
1.
0%
1/
1$
#20000
1"
0!
1-
0.
1%
0/
0$
#30000
1#
1!
1,
1.
0%
1/
1$
#40000
0"
0!
0-
0.
1%
0/
0$
#50000
1!
1.
0%
#60000
0#
1"
0!
0,
1-
0.
1%
#70000
1!
1.
0%
1/
1$
#80000
0"
0!
0-
0.
1%
0/
0$
#90000
1#
1!
1,
1.
0%
#100000
1"
0!
1-
0.
1%
1/
1$
#110000
1!
1.
0%
#120000
0#
0"
0!
0,
0-
0.
1%
0/
0$
#130000
1!
1.
0%
1/
1$
#140000
1"
0!
1-
0.
1%
0/
0$
#150000
1#
1!
1,
1.
0%
1/
1$
#160000
0"
0!
0-
0.
1%
0/
0$
#170000
1!
1.
0%
#180000
0#
1"
0!
0,
1-
0.
1%
#190000
1!
1.
0%
1/
1$
#200000
0"
0!
0-
0.
1%
0/
0$
#210000
1#
1!
1,
1.
0%
#220000
1"
0!
1-
0.
1%
1/
1$
#230000
1!
1.
0%
#240000
0#
0"
0!
0,
0-
0.
1%
0/
0$
#250000
1!
1.
0%
1/
1$
#260000
1"
0!
1-
0.
1%
0/
0$
#270000
1#
1!
1,
1.
0%
1/
1$
#280000
0"
0!
0-
0.
1%
0/
0$
#290000
1!
1.
0%
#300000
0#
1"
0!
0,
1-
0.
1%
#310000
1!
1.
0%
1/
1$
#320000
0"
0!
0-
0.
1%
0/
0$
#330000
1#
1!
1,
1.
0%
#340000
1"
0!
1-
0.
1%
1/
1$
#350000
1!
1.
0%
#360000
0#
0"
0!
0,
0-
0.
1%
0/
0$
#370000
1!
1.
0%
1/
1$
#380000
1"
0!
1-
0.
1%
0/
0$
#390000
1#
1!
1,
1.
0%
1/
1$
#400000
0"
0!
0-
0.
1%
0/
0$
#410000
1!
1.
0%
#420000
0#
1"
0!
0,
1-
0.
1%
#430000
1!
1.
0%
1/
1$
#440000
0"
0!
0-
0.
1%
0/
0$
#450000
1#
1!
1,
1.
0%
#460000
1"
0!
1-
0.
1%
1/
1$
#470000
1!
1.
0%
#480000
0#
0"
0!
0,
0-
0.
1%
0/
0$
#490000
1!
1.
0%
1/
1$
#500000
1"
0!
1-
0.
1%
0/
0$
#510000
1#
1!
1,
1.
0%
1/
1$
#520000
0"
0!
0-
0.
1%
0/
0$
#530000
1!
1.
0%
#540000
0#
1"
0!
0,
1-
0.
1%
#550000
1!
1.
0%
1/
1$
#560000
0"
0!
0-
0.
1%
0/
0$
#570000
1#
1!
1,
1.
0%
#580000
1"
0!
1-
0.
1%
1/
1$
#590000
1!
1.
0%
#600000
0#
0"
0!
0,
0-
0.
1%
0/
0$
#610000
1!
1.
0%
1/
1$
#620000
1"
0!
1-
0.
1%
0/
0$
#630000
1#
1!
1,
1.
0%
1/
1$
#640000
0"
0!
0-
0.
1%
0/
0$
#650000
1!
1.
0%
#660000
0#
1"
0!
0,
1-
0.
1%
#670000
1!
1.
0%
1/
1$
#680000
0"
0!
0-
0.
1%
0/
0$
#690000
1#
1!
1,
1.
0%
#700000
1"
0!
1-
0.
1%
1/
1$
#710000
1!
1.
0%
#720000
0#
0"
0!
0,
0-
0.
1%
0/
0$
#730000
1!
1.
0%
1/
1$
#740000
1"
0!
1-
0.
1%
0/
0$
#750000
1#
1!
1,
1.
0%
1/
1$
#760000
0"
0!
0-
0.
1%
0/
0$
#770000
1!
1.
0%
#780000
0#
1"
0!
0,
1-
0.
1%
#790000
1!
1.
0%
1/
1$
#800000
0"
0!
0-
0.
1%
0/
0$
#810000
1#
1!
1,
1.
0%
#820000
1"
0!
1-
0.
1%
1/
1$
#830000
1!
1.
0%
#840000
0#
0"
0!
0,
0-
0.
1%
0/
0$
#850000
1!
1.
0%
1/
1$
#860000
1"
0!
1-
0.
1%
0/
0$
#870000
1#
1!
1,
1.
0%
1/
1$
#880000
0"
0!
0-
0.
1%
0/
0$
#890000
1!
1.
0%
#900000
0#
1"
0!
0,
1-
0.
1%
#910000
1!
1.
0%
1/
1$
#920000
0"
0!
0-
0.
1%
0/
0$
#930000
1#
1!
1,
1.
0%
#940000
1"
0!
1-
0.
1%
1/
1$
#950000
1!
1.
0%
#960000
0#
0"
0!
0,
0-
0.
1%
0/
0$
#970000
1!
1.
0%
1/
1$
#980000
1"
0!
1-
0.
1%
0/
0$
#990000
1#
1!
1,
1.
0%
1/
1$
