Compare_add_circuit/simulation/qsim/Compare_add_circuit.msim.vcd
$comment
	File created using the following command:
		vcd file Compare_add_circuit.msim.vcd -direction
$end
$date
	Thu Sep 13 23:07:25 2018
$end
$version
	ModelSim Version 10.1d
$end
$timescale
	1ps
$end
$scope module Compare_add_circuit_vlg_vec_tst $end
$var reg 3 ! treg_c [2:0] $end
$var reg 32 " Num1 [31:0] $end
$var reg 32 # Num2 [31:0] $end
$var reg 3 $ treg_sa [2:0] $end
$var reg 3 % treg_sb [2:0] $end
$var wire 1 & c [2] $end
$var wire 1 ' c [1] $end
$var wire 1 ( c [0] $end
$var wire 1 ) sa [2] $end
$var wire 1 * sa [1] $end
$var wire 1 + sa [0] $end
$var wire 1 , salidaComp $end
$var wire 1 - salidadSum [3] $end
$var wire 1 . salidadSum [2] $end
$var wire 1 / salidadSum [1] $end
$var wire 1 0 salidadSum [0] $end
$var wire 1 1 sb [2] $end
$var wire 1 2 sb [1] $end
$var wire 1 3 sb [0] $end
$var wire 1 4 sampler $end
$scope module i1 $end
$var wire 1 5 gnd $end
$var wire 1 6 vcc $end
$var wire 1 7 unknown $end
$var tri1 1 8 devclrn $end
$var tri1 1 9 devpor $end
$var tri1 1 : devoe $end
$var wire 1 ; c~7_combout $end
$var wire 1 < c~0_combout $end
$var wire 1 = c~8_combout $end
$var wire 1 > LessThan0~0_combout $end
$var wire 1 ? LessThan0~1_combout $end
$var wire 1 @ salidadSum~0_combout $end
$var wire 1 A salidadSum~1_combout $end
$var wire 1 B salidadSum~2_combout $end
$var wire 1 C Num2~combout [31] $end
$var wire 1 D Num2~combout [30] $end
$var wire 1 E Num2~combout [29] $end
$var wire 1 F Num2~combout [28] $end
$var wire 1 G Num2~combout [27] $end
$var wire 1 H Num2~combout [26] $end
$var wire 1 I Num2~combout [25] $end
$var wire 1 J Num2~combout [24] $end
$var wire 1 K Num2~combout [23] $end
$var wire 1 L Num2~combout [22] $end
$var wire 1 M Num2~combout [21] $end
$var wire 1 N Num2~combout [20] $end
$var wire 1 O Num2~combout [19] $end
$var wire 1 P Num2~combout [18] $end
$var wire 1 Q Num2~combout [17] $end
$var wire 1 R Num2~combout [16] $end
$var wire 1 S Num2~combout [15] $end
$var wire 1 T Num2~combout [14] $end
$var wire 1 U Num2~combout [13] $end
$var wire 1 V Num2~combout [12] $end
$var wire 1 W Num2~combout [11] $end
$var wire 1 X Num2~combout [10] $end
$var wire 1 Y Num2~combout [9] $end
$var wire 1 Z Num2~combout [8] $end
$var wire 1 [ Num2~combout [7] $end
$var wire 1 \ Num2~combout [6] $end
$var wire 1 ] Num2~combout [5] $end
$var wire 1 ^ Num2~combout [4] $end
$var wire 1 _ Num2~combout [3] $end
$var wire 1 ` Num2~combout [2] $end
$var wire 1 a Num2~combout [1] $end
$var wire 1 b Num2~combout [0] $end
$var wire 1 c Num1~combout [31] $end
$var wire 1 d Num1~combout [30] $end
$var wire 1 e Num1~combout [29] $end
$var wire 1 f Num1~combout [28] $end
$var wire 1 g Num1~combout [27] $end
$var wire 1 h Num1~combout [26] $end
$var wire 1 i Num1~combout [25] $end
$var wire 1 j Num1~combout [24] $end
$var wire 1 k Num1~combout [23] $end
$var wire 1 l Num1~combout [22] $end
$var wire 1 m Num1~combout [21] $end
$var wire 1 n Num1~combout [20] $end
$var wire 1 o Num1~combout [19] $end
$var wire 1 p Num1~combout [18] $end
$var wire 1 q Num1~combout [17] $end
$var wire 1 r Num1~combout [16] $end
$var wire 1 s Num1~combout [15] $end
$var wire 1 t Num1~combout [14] $end
$var wire 1 u Num1~combout [13] $end
$var wire 1 v Num1~combout [12] $end
$var wire 1 w Num1~combout [11] $end
$var wire 1 x Num1~combout [10] $end
$var wire 1 y Num1~combout [9] $end
$var wire 1 z Num1~combout [8] $end
$var wire 1 { Num1~combout [7] $end
$var wire 1 | Num1~combout [6] $end
$var wire 1 } Num1~combout [5] $end
$var wire 1 ~ Num1~combout [4] $end
$var wire 1 !! Num1~combout [3] $end
$var wire 1 "! Num1~combout [2] $end
$var wire 1 #! Num1~combout [1] $end
$var wire 1 $! Num1~combout [0] $end
$upscope $end
$upscope $end
$enddefinitions $end
#0
$dumpvars
bz !
b0 "
b0 #
b110 $
b11 %
0(
0'
0&
0+
x*
x)
0,
00
0/
0.
1-
x3
x2
01
x4
05
16
x7
18
19
1:
0;
0<
0=
0>
0?
0@
0A
0B
0b
0a
0`
z_
z^
z]
z\
z[
zZ
zY
zX
zW
zV
zU
zT
zS
zR
zQ
zP
zO
zN
zM
zL
zK
zJ
zI
zH
zG
zF
zE
zD
zC
0$!
0#!
0"!
z!!
z~
z}
z|
z{
zz
zy
zx
zw
zv
zu
zt
zs
zr
zq
zp
zo
zn
zm
zl
zk
zj
zi
zh
zg
zf
ze
zd
zc
$end
#20000
b111 $
b111 %
b101 %
b100 %
03
02
x1
x+
04
#40000
b11 $
b1 $
b0 $
b101 %
x3
0+
0*
0)
14
#60000
b111 %
b1 $
b110 %
x+
03
x2
04
#80000
b11 $
b10 $
b111 %
x3
0+
x*
14
#100000
b11 %
b1 %
b11 $
b0 %
x+
03
02
01
04
#120000
b111 $
b101 $
b100 $
b1 %
x3
0+
0*
x)
14
#140000
b11 %
b101 $
b10 %
x+
03
x2
04
#160000
b111 $
b110 $
b11 %
x3
0+
x*
14
#180000
b111 %
b101 %
b111 $
b100 %
x+
03
02
x1
04
#200000
b11 $
b1 $
b0 $
b101 %
x3
0+
0*
0)
14
#220000
b111 %
b1 $
b110 %
x+
03
x2
04
#240000
b11 $
b10 $
b111 %
x3
0+
x*
14
#260000
b11 %
b1 %
b11 $
b0 %
x+
03
02
01
04
#280000
b111 $
b101 $
b100 $
b1 %
x3
0+
0*
x)
14
#300000
b11 %
b101 $
b10 %
x+
03
x2
04
#320000
b111 $
b110 $
b11 %
x3
0+
x*
14
#340000
b111 %
b101 %
b111 $
b100 %
x+
03
02
x1
04
#360000
b11 $
b1 $
b0 $
b101 %
x3
0+
0*
0)
14
#380000
b111 %
b1 $
b110 %
x+
03
x2
04
#400000
b11 $
b10 $
b111 %
x3
0+
x*
14
#420000
b11 %
b1 %
b11 $
b0 %
x+
03
02
01
04
#440000
b111 $
b101 $
b100 $
b1 %
x3
0+
0*
x)
14
#460000
b11 %
b101 $
b10 %
x+
03
x2
04
#480000
b111 $
b110 $
b11 %
x3
0+
x*
14
#500000
b111 %
b101 %
b111 $
b100 %
x+
03
02
x1
04
#520000
b11 $
b1 $
b0 $
b101 %
x3
0+
0*
0)
14
#540000
b111 %
b1 $
b110 %
x+
03
x2
04
#560000
b11 $
b10 $
b111 %
x3
0+
x*
14
#580000
b11 %
b1 %
b11 $
b0 %
x+
03
02
01
04
#600000
b111 $
b101 $
b100 $
b1 %
x3
0+
0*
x)
14
#620000
b11 %
b101 $
b10 %
x+
03
x2
04
#640000
b111 $
b110 $
b11 %
x3
0+
x*
14
#660000
b111 %
b101 %
b111 $
b100 %
x+
03
02
x1
04
#680000
b11 $
b1 $
b0 $
b101 %
x3
0+
0*
0)
14
#700000
b111 %
b1 $
b110 %
x+
03
x2
04
#720000
b11 $
b10 $
b111 %
x3
0+
x*
14
#740000
b11 %
b1 %
b11 $
b0 %
x+
03
02
01
04
#760000
b111 $
b101 $
b100 $
b1 %
x3
0+
0*
x)
14
#780000
b11 %
b101 $
b10 %
x+
03
x2
04
#800000
b111 $
b110 $
b11 %
x3
0+
x*
14
#820000
b111 %
b101 %
b111 $
b100 %
x+
03
02
x1
04
#840000
b11 $
b1 $
b0 $
b101 %
x3
0+
0*
0)
14
#860000
b111 %
b1 $
b110 %
x+
03
x2
04
#880000
b11 $
b10 $
b111 %
x3
0+
x*
14
#900000
b11 %
b1 %
b11 $
b0 %
x+
03
02
01
04
#920000
b111 $
b101 $
b100 $
b1 %
x3
0+
0*
x)
14
#940000
b11 %
b101 $
b10 %
x+
03
x2
04
#960000
b111 $
b110 $
b11 %
x3
0+
x*
14
#980000
b111 %
b101 %
b111 $
b100 %
x+
03
02
x1
04
