Semaforo/simulation/qsim/semaforo.msim.vcd
$comment
	File created using the following command:
		vcd file semaforo.msim.vcd -direction
$end
$date
	Thu Oct 18 20:27:12 2018
$end
$version
	ModelSim Version 10.1d
$end
$timescale
	1ps
$end
$scope module semaforo_vlg_vec_tst $end
$var reg 1 ! carro $end
$var reg 1 " clock $end
$var reg 1 # timer $end
$var wire 1 $ act_temporizador $end
$var wire 1 % avenida $end
$var wire 1 & camino $end
$var wire 1 ' sampler $end
$scope module i1 $end
$var wire 1 ( gnd $end
$var wire 1 ) vcc $end
$var wire 1 * unknown $end
$var tri1 1 + devclrn $end
$var tri1 1 , devpor $end
$var tri1 1 - devoe $end
$var wire 1 . carro~combout $end
$var wire 1 / clock~combout $end
$var wire 1 0 clock~clkctrl_outclk $end
$var wire 1 1 estado~0_combout $end
$var wire 1 2 avenida~0_combout $end
$var wire 1 3 avenida$latch~combout $end
$var wire 1 4 camino$latch~combout $end
$upscope $end
$upscope $end
$enddefinitions $end
#0
$dumpvars
0!
0"
0#
0$
x%
x&
x'
0(
1)
x*
1+
1,
1-
0.
0/
00
x1
x2
x3
x4
$end
#10000
1"
1/
10
0'
#20000
0"
0/
00
1'
#30000
1"
1/
10
0'
#40000
0"
0/
00
1'
#50000
1"
1/
10
0'
#60000
0"
0/
00
1'
#70000
1"
1/
10
0'
#80000
0"
0/
00
1'
#90000
1"
1/
10
0'
#100000
0"
0/
00
1'
#110000
1"
1/
10
0'
#120000
0"
0/
00
1'
#130000
1"
1/
10
0'
#140000
0"
0/
00
1'
#150000
1"
1/
10
0'
#160000
0"
0/
00
1'
#170000
1"
1/
10
0'
#180000
0"
0/
00
1'
#190000
1"
1/
10
0'
#200000
1!
0"
1.
0/
00
1'
#210000
1"
1/
10
0'
#220000
0"
0/
00
1'
#230000
1"
1/
10
0'
#240000
0"
0/
00
1'
#250000
1"
1/
10
0'
#260000
0"
0/
00
1'
#270000
1"
1/
10
0'
#280000
0"
0/
00
1'
#290000
1"
1/
10
0'
#300000
0"
0/
00
1'
#310000
1"
1/
10
0'
#320000
0"
0/
00
1'
#330000
1"
1/
10
0'
#340000
0"
0/
00
1'
#350000
1"
1/
10
0'
#360000
0"
0/
00
1'
#370000
1"
1/
10
0'
#380000
0"
0/
00
1'
#390000
1"
1/
10
0'
#400000
0!
0"
0.
0/
00
1'
#410000
1"
1/
10
0'
#420000
0"
0/
00
1'
#430000
1"
1/
10
0'
#440000
0"
0/
00
1'
#450000
1"
1/
10
0'
#460000
0"
0/
00
1'
#470000
1"
1/
10
0'
#480000
0"
0/
00
1'
#490000
1"
1/
10
0'
#500000
1#
0"
0/
00
1'
#510000
1"
1/
10
0'
#520000
0"
0/
00
1'
#530000
1"
1/
10
0'
#540000
0"
0/
00
1'
#550000
1"
1/
10
0'
#560000
0"
0/
00
1'
#570000
1"
1/
10
0'
#580000
0"
0/
00
1'
#590000
1"
1/
10
0'
#600000
1!
0"
1.
0/
00
1'
#610000
1"
1/
10
0'
#620000
0"
0/
00
1'
#630000
1"
1/
10
0'
#640000
0"
0/
00
1'
#650000
1"
1/
10
0'
#660000
0"
0/
00
1'
#670000
1"
1/
10
0'
#680000
0"
0/
00
1'
#690000
1"
1/
10
0'
#700000
0"
0/
00
1'
#710000
1"
1/
10
0'
#720000
0"
0/
00
1'
#730000
1"
1/
10
0'
#740000
0"
0/
00
1'
#750000
1"
1/
10
0'
#760000
0"
0/
00
1'
#770000
1"
1/
10
0'
#780000
0"
0/
00
1'
#790000
1"
1/
10
0'
#800000
0!
0"
0.
0/
00
1'
#810000
1"
1/
10
0'
#820000
0"
0/
00
1'
#830000
1"
1/
10
0'
#840000
0"
0/
00
1'
#850000
1"
1/
10
0'
#860000
0"
0/
00
1'
#870000
1"
1/
10
0'
#880000
0"
0/
00
1'
#890000
1"
1/
10
0'
#900000
0"
0/
00
1'
#910000
1"
1/
10
0'
#920000
0"
0/
00
1'
#930000
1"
1/
10
0'
#940000
0"
0/
00
1'
#950000
1"
1/
10
0'
#960000
0"
0/
00
1'
#970000
1"
1/
10
0'
#980000
0"
0/
00
1'
#990000
1"
1/
10
0'
